1 0.841470984807897 0.54030230586814
2 0.909297426825682 -0.416146836547142
3 0.141120008059867 -0.989992496600445
1 0.841470984807897 0.54030230586814
2 0.909297426825682 -0.416146836547142
4 -0.756802495307928 -0.653643620863612
