<?xml version="1.0" encoding="utf-8"  standalone="no"?>
<svg 
 width="600" height="480"
 viewBox="0 0 600 480"
 xmlns="http://www.w3.org/2000/svg"
 xmlns:xlink="http://www.w3.org/1999/xlink"
>

<title>Gnuplot</title>
<desc>Produced by GNUPLOT 5.2 patchlevel 2 </desc>

<g id="gnuplot_canvas">

<rect x="0" y="0" width="600" height="480" fill="#ffffff"/>
<defs>

	<circle id='gpDot' r='0.5' stroke-width='0.5'/>
	<path id='gpPt0' stroke-width='0.222' stroke='currentColor' d='M-1,0 h2 M0,-1 v2'/>
	<path id='gpPt1' stroke-width='0.222' stroke='currentColor' d='M-1,-1 L1,1 M1,-1 L-1,1'/>
	<path id='gpPt2' stroke-width='0.222' stroke='currentColor' d='M-1,0 L1,0 M0,-1 L0,1 M-1,-1 L1,1 M-1,1 L1,-1'/>
	<rect id='gpPt3' stroke-width='0.222' stroke='currentColor' x='-1' y='-1' width='2' height='2'/>
	<rect id='gpPt4' stroke-width='0.222' stroke='currentColor' fill='currentColor' x='-1' y='-1' width='2' height='2'/>
	<circle id='gpPt5' stroke-width='0.222' stroke='currentColor' cx='0' cy='0' r='1'/>
	<use xlink:href='#gpPt5' id='gpPt6' fill='currentColor' stroke='none'/>
	<path id='gpPt7' stroke-width='0.222' stroke='currentColor' d='M0,-1.33 L-1.33,0.67 L1.33,0.67 z'/>
	<use xlink:href='#gpPt7' id='gpPt8' fill='currentColor' stroke='none'/>
	<use xlink:href='#gpPt7' id='gpPt9' stroke='currentColor' transform='rotate(180)'/>
	<use xlink:href='#gpPt9' id='gpPt10' fill='currentColor' stroke='none'/>
	<use xlink:href='#gpPt3' id='gpPt11' stroke='currentColor' transform='rotate(45)'/>
	<use xlink:href='#gpPt11' id='gpPt12' fill='currentColor' stroke='none'/>
	<path id='gpPt13' stroke-width='0.222' stroke='currentColor' d='M0,1.330 L1.265,0.411 L0.782,-1.067 L-0.782,-1.076 L-1.265,0.411 z'/>
	<use xlink:href='#gpPt13' id='gpPt14' fill='currentColor' stroke='none'/>
	<filter id='textbox' filterUnits='objectBoundingBox' x='0' y='0' height='1' width='1'>
	  <feFlood flood-color='#FFFFFF' flood-opacity='1' result='bgnd'/>
	  <feComposite in='SourceGraphic' in2='bgnd' operator='atop'/>
	</filter>
	<filter id='greybox' filterUnits='objectBoundingBox' x='0' y='0' height='1' width='1'>
	  <feFlood flood-color='lightgrey' flood-opacity='1' result='grey'/>
	  <feComposite in='SourceGraphic' in2='grey' operator='atop'/>
	</filter>
</defs>
<g fill="none" color="#FFFFFF" stroke="currentColor" stroke-width="1.00" stroke-linecap="butt" stroke-linejoin="miter">
</g>
<g fill="none" color="black" stroke="currentColor" stroke-width="1.00" stroke-linecap="butt" stroke-linejoin="miter">
	<path stroke='black'  d='M80.9,413.4 L71.9,413.4 M566.0,413.4 L575.0,413.4  '/>	<g transform="translate(63.6,417.3)" stroke="none" fill="black" font-family="Arial" font-size="12.00"  text-anchor="end">
		<text><tspan font-family="Arial" > 0.4</tspan></text>
	</g>
</g>
<g fill="none" color="black" stroke="currentColor" stroke-width="1.00" stroke-linecap="butt" stroke-linejoin="miter">
	<path stroke='black'  d='M80.9,347.5 L71.9,347.5 M566.0,347.5 L575.0,347.5  '/>	<g transform="translate(63.6,351.4)" stroke="none" fill="black" font-family="Arial" font-size="12.00"  text-anchor="end">
		<text><tspan font-family="Arial" > 0.6</tspan></text>
	</g>
</g>
<g fill="none" color="black" stroke="currentColor" stroke-width="1.00" stroke-linecap="butt" stroke-linejoin="miter">
	<path stroke='black'  d='M80.9,281.6 L71.9,281.6 M566.0,281.6 L575.0,281.6  '/>	<g transform="translate(63.6,285.5)" stroke="none" fill="black" font-family="Arial" font-size="12.00"  text-anchor="end">
		<text><tspan font-family="Arial" > 0.8</tspan></text>
	</g>
</g>
<g fill="none" color="black" stroke="currentColor" stroke-width="1.00" stroke-linecap="butt" stroke-linejoin="miter">
	<path stroke='black'  d='M80.9,215.8 L71.9,215.8 M566.0,215.8 L575.0,215.8  '/>	<g transform="translate(63.6,219.7)" stroke="none" fill="black" font-family="Arial" font-size="12.00"  text-anchor="end">
		<text><tspan font-family="Arial" > 1</tspan></text>
	</g>
</g>
<g fill="none" color="black" stroke="currentColor" stroke-width="1.00" stroke-linecap="butt" stroke-linejoin="miter">
	<path stroke='black'  d='M80.9,149.9 L71.9,149.9 M566.0,149.9 L575.0,149.9  '/>	<g transform="translate(63.6,153.8)" stroke="none" fill="black" font-family="Arial" font-size="12.00"  text-anchor="end">
		<text><tspan font-family="Arial" > 1.2</tspan></text>
	</g>
</g>
<g fill="none" color="black" stroke="currentColor" stroke-width="1.00" stroke-linecap="butt" stroke-linejoin="miter">
	<path stroke='black'  d='M80.9,84.0 L71.9,84.0 M566.0,84.0 L575.0,84.0  '/>	<g transform="translate(63.6,87.9)" stroke="none" fill="black" font-family="Arial" font-size="12.00"  text-anchor="end">
		<text><tspan font-family="Arial" > 1.4</tspan></text>
	</g>
</g>
<g fill="none" color="black" stroke="currentColor" stroke-width="1.00" stroke-linecap="butt" stroke-linejoin="miter">
	<path stroke='black'  d='M80.9,18.1 L71.9,18.1 M566.0,18.1 L575.0,18.1  '/>	<g transform="translate(63.6,22.0)" stroke="none" fill="black" font-family="Arial" font-size="12.00"  text-anchor="end">
		<text><tspan font-family="Arial" > 1.6</tspan></text>
	</g>
</g>
<g fill="none" color="black" stroke="currentColor" stroke-width="1.00" stroke-linecap="butt" stroke-linejoin="miter">
	<path stroke='black'  d='M80.9,413.4 L80.9,422.4 M80.9,18.1 L80.9,9.1  '/>	<g transform="translate(80.9,444.3)" stroke="none" fill="black" font-family="Arial" font-size="12.00"  text-anchor="middle">
		<text><tspan font-family="Arial" > 0</tspan></text>
	</g>
</g>
<g fill="none" color="black" stroke="currentColor" stroke-width="1.00" stroke-linecap="butt" stroke-linejoin="miter">
	<path stroke='black'  d='M177.9,413.4 L177.9,422.4 M177.9,18.1 L177.9,9.1  '/>	<g transform="translate(177.9,444.3)" stroke="none" fill="black" font-family="Arial" font-size="12.00"  text-anchor="middle">
		<text><tspan font-family="Arial" > 2</tspan></text>
	</g>
</g>
<g fill="none" color="black" stroke="currentColor" stroke-width="1.00" stroke-linecap="butt" stroke-linejoin="miter">
	<path stroke='black'  d='M274.9,413.4 L274.9,422.4 M274.9,18.1 L274.9,9.1  '/>	<g transform="translate(274.9,444.3)" stroke="none" fill="black" font-family="Arial" font-size="12.00"  text-anchor="middle">
		<text><tspan font-family="Arial" > 4</tspan></text>
	</g>
</g>
<g fill="none" color="black" stroke="currentColor" stroke-width="1.00" stroke-linecap="butt" stroke-linejoin="miter">
	<path stroke='black'  d='M372.0,413.4 L372.0,422.4 M372.0,18.1 L372.0,9.1  '/>	<g transform="translate(372.0,444.3)" stroke="none" fill="black" font-family="Arial" font-size="12.00"  text-anchor="middle">
		<text><tspan font-family="Arial" > 6</tspan></text>
	</g>
</g>
<g fill="none" color="black" stroke="currentColor" stroke-width="1.00" stroke-linecap="butt" stroke-linejoin="miter">
	<path stroke='black'  d='M469.0,413.4 L469.0,422.4 M469.0,18.1 L469.0,9.1  '/>	<g transform="translate(469.0,444.3)" stroke="none" fill="black" font-family="Arial" font-size="12.00"  text-anchor="middle">
		<text><tspan font-family="Arial" > 8</tspan></text>
	</g>
</g>
<g fill="none" color="black" stroke="currentColor" stroke-width="1.00" stroke-linecap="butt" stroke-linejoin="miter">
	<path stroke='black'  d='M566.0,413.4 L566.0,422.4 M566.0,18.1 L566.0,9.1  '/>	<g transform="translate(566.0,444.3)" stroke="none" fill="black" font-family="Arial" font-size="12.00"  text-anchor="middle">
		<text><tspan font-family="Arial" > 10</tspan></text>
	</g>
</g>
<g fill="none" color="black" stroke="currentColor" stroke-width="1.00" stroke-linecap="butt" stroke-linejoin="miter">
</g>
<g fill="none" color="black" stroke="currentColor" stroke-width="1.00" stroke-linecap="butt" stroke-linejoin="miter">
	<path stroke='black'  d='M80.9,18.1 L80.9,413.4 L566.0,413.4 L566.0,18.1 L80.9,18.1 Z  '/></g>
<g fill="none" color="black" stroke="currentColor" stroke-width="1.00" stroke-linecap="butt" stroke-linejoin="miter">
	<g transform="translate(16.3,215.8) rotate(270)" stroke="none" fill="black" font-family="Arial" font-size="12.00"  text-anchor="middle">
		<text><tspan font-family="Arial" >y</tspan></text>
	</g>
</g>
<g fill="none" color="black" stroke="currentColor" stroke-width="1.00" stroke-linecap="butt" stroke-linejoin="miter">
	<g transform="translate(323.4,471.3)" stroke="none" fill="black" font-family="Arial" font-size="12.00"  text-anchor="middle">
		<text><tspan font-family="Arial" >x</tspan></text>
	</g>
</g>
<g fill="none" color="black" stroke="currentColor" stroke-width="1.00" stroke-linecap="butt" stroke-linejoin="miter">
</g>
	<g id="gnuplot_plot_1" ><title>gamma</title>
<g fill="none" color="black" stroke="currentColor" stroke-width="1.00" stroke-linecap="butt" stroke-linejoin="miter">
	<g transform="translate(498.9,399.3)" stroke="none" fill="black" font-family="Arial" font-size="12.00"  text-anchor="end">
		<text><tspan font-family="Arial" >gamma</tspan></text>
	</g>
</g>
<g fill="none" color="black" stroke="currentColor" stroke-width="1.00" stroke-linecap="butt" stroke-linejoin="miter">
	<path stroke='rgb(148,   0, 211)'  d='M507.2,395.4 L549.4,395.4 M80.9,380.5 L85.8,372.2 L92.3,361.2 L101.0,346.8 L112.8,328.2 L128.6,305.4
		L148.2,281.6 L165.6,264.6 L182.6,251.8 L199.4,242.1 L217.1,234.5 L226.4,231.3 L80.9,215.8 L85.8,215.8
		L92.3,215.8 L101.0,215.8 L112.8,215.8 L128.6,215.8 L149.8,215.8 L178.4,215.8 L216.7,215.8 L268.2,215.8
		L337.4,215.8 L430.3,215.8 L555.2,215.8 L566.0,215.8 L80.9,215.8 L85.8,232.2 L90.6,248.4 L95.4,264.3
		L100.2,279.7 L105.1,294.7 L110.1,309.0 L115.2,322.7 L120.4,335.4 L125.7,347.1 L131.2,357.5 L136.6,365.9
		L141.9,372.4 L147.0,376.9 L152.1,379.6 L157.2,380.4 L162.2,379.6 L167.1,376.9 L172.1,372.6 L177.1,366.6
		L182.2,358.8 L187.4,349.4 L192.6,338.2 L198.1,325.2 L203.6,310.3 L209.3,293.9 L214.9,276.8 L220.3,259.3
		L225.7,241.5 L230.9,223.7 L236.2,206.0 L241.4,188.4 L246.7,170.8 L252.1,153.4 L257.7,136.3 L263.5,119.7
		L269.5,103.9 L275.8,89.2 L282.0,76.8 L288.1,66.9 L293.9,59.5 L299.6,54.5 L305.2,51.7 L310.7,51.1
		L316.1,52.6 L321.6,56.2 L327.1,61.8 L332.7,69.5 L338.3,79.3 L344.1,91.1 L350.0,105.2 L356.1,121.5
		L362.6,140.2 L369.2,160.7 L375.6,181.8 L381.9,202.8 L387.9,223.3 L393.9,243.3 L399.7,262.8 L405.7,281.7
		L411.7,299.8 L417.8,317.0 L424.1,333.0 L430.7,347.5 L437.5,360.1 L444.4,369.7 L451.0,376.3 L457.6,379.7
		L464.1,380.2 L470.6,377.7 L477.2,372.3 L483.8,363.8 L490.6,352.3 L497.6,337.7 L505.0,319.6 L512.7,298.0
		L520.7,273.7 L528.6,247.8 L536.5,221.1 L544.5,193.9 L552.9,166.1 L562.0,137.8 L566.0,126.2 L80.9,215.8
		L85.8,232.2 L90.6,248.4 L95.5,264.3 L100.3,279.8 L105.3,294.8 L110.3,309.1 L115.4,322.7 L120.6,335.3
		L126.0,346.9 L131.6,357.0 L137.0,365.2 L142.3,371.3 L147.5,375.6 L152.6,377.9 L157.6,378.5 L162.7,377.3
		L167.7,374.4 L172.7,369.7 L177.8,363.3 L182.9,355.3 L188.1,345.4 L193.4,333.8 L198.9,320.4 L204.6,305.1
		L210.3,288.4 L215.9,271.1 L221.3,253.4 L226.7,235.5 L232.0,217.6 L237.2,199.8 L242.5,182.0 L247.9,164.2
		L253.5,146.6 L259.2,129.3 L265.1,112.6 L271.2,96.7 L277.6,82.1 L283.9,69.9 L290.0,60.2 L295.9,53.2
		L301.7,48.5 L307.3,46.1 L312.9,45.9 L318.5,47.8 L324.1,51.9 L329.7,58.0 L335.4,66.3 L341.1,76.7
		L347.0,89.3 L353.1,104.1 L359.4,121.2 L366.0,140.8 L372.7,161.9 L379.2,183.4 L385.5,204.6 L391.6,225.3
		L397.6,245.4 L403.6,265.0 L409.6,283.9 L415.7,301.9 L421.9,319.0 L428.4,334.8 L435.0,348.9 L442.0,360.9
		L448.8,369.8 L455.5,375.6 L462.2,378.2 L468.7,377.9 L475.3,374.5 L482.0,368.1 L488.7,358.7 L495.7,346.1
		L502.9,330.2 L510.5,310.7 L518.5,287.5 L526.6,262.0 L534.7,235.3 L542.8,207.8 L551.2,179.7 L560.1,150.7
		L566.0,132.6  '/></g>
	</g>
<g fill="none" color="#FFFFFF" stroke="rgb(148,   0, 211)" stroke-width="2.00" stroke-linecap="butt" stroke-linejoin="miter">
</g>
<g fill="none" color="black" stroke="currentColor" stroke-width="2.00" stroke-linecap="butt" stroke-linejoin="miter">
</g>
<g fill="none" color="black" stroke="black" stroke-width="1.00" stroke-linecap="butt" stroke-linejoin="miter">
</g>
<g fill="none" color="black" stroke="currentColor" stroke-width="1.00" stroke-linecap="butt" stroke-linejoin="miter">
	<path stroke='black'  d='M80.9,18.1 L80.9,413.4 L566.0,413.4 L566.0,18.1 L80.9,18.1 Z  '/></g>
<g fill="none" color="black" stroke="currentColor" stroke-width="1.00" stroke-linecap="butt" stroke-linejoin="miter">
</g>
</g>
</svg>

