0 	 0.5
0.1 	 0.524979186191813
0.234350288425444 	 0.558320895498561
0.414850288425444 	 0.602250330443699
0.657352559033371 	 0.658665947793415
0.983155059033371 	 0.727739851765102
1.38678526777824 	 0.800113770918129
1.74681414866432 	 0.85160782584884
2.09618454456456 	 0.890606418154788
2.44321940471879 	 0.9201501811836
2.80751366288321 	 0.943175906443129
3 	 0.952656548272027
Solving for ya = 1,0, eps = 0
0 	 1 	 1
0.1 	 1 	 1
0.234350288425444 	 1 	 1
0.414850288425444 	 1 	 1
0.657352559033371 	 1 	 1
0.983155059033371 	 1 	 1
1.42087165748068 	 1 	 1
2.00894516998068 	 1 	 1
2.79902363017807 	 1 	 1
3.86049632024057 	 1 	 1
5.28658794089686 	 1 	 1
7.20254614645967 	 1 	 1
9.77664152174427 	 1 	 1
10 	 1 	 1
Solving for ya = 1,-0.5, eps = 0
0 	 1 	 1
0.1 	 0.950083333333333 	 0.950083333333333
0.199430338242249 	 0.900944995618896 	 0.900944995618896
0.298897182867794 	 0.852768106124781 	 0.852768106124781
0.398877928571608 	 0.805810284234329 	 0.805810284234329
0.499817213867251 	 0.760371679567738 	 0.760371679567738
0.60217704742805 	 0.716787360723947 	 0.716787360723947
0.706473737303221 	 0.675431103639677 	 0.675431103639677
0.813317529910208 	 0.636726631027355 	 0.636726631027355
0.923467355244485 	 0.60116688825884 	 0.60116688825884
1.03633049273972 	 0.569749392565485 	 0.569749392565485
1.14776781403423 	 0.544099135868907 	 0.544099135868907
1.25676287394189 	 0.524480383873386 	 0.524480383873386
1.36346910237115 	 0.510739468798796 	 0.510739468798796
1.46838261794702 	 0.502654917886252 	 0.502654917886252
1.5720508628306 	 0.500038356377391 	 0.500038356377391
1.67499110707189 	 0.502752108938055 	 0.502752108938055
1.77768188781191 	 0.510704725425327 	 0.510704725425327
1.88057691542599 	 0.523843701103474 	 0.523843701103474
1.98412504861086 	 0.542150485745189 	 0.542150485745189
2.08879252196306 	 0.565638802086618 	 0.565638802086618
2.19508836102503 	 0.594356569427628 	 0.594356569427628
2.30359639999895 	 0.628392150239075 	 0.628392150239075
2.41502008705082 	 0.667886740335259 	 0.667886740335259
2.5302514744272 	 0.713056906262937 	 0.713056906262937
2.64699399108956 	 0.762697097937391 	 0.762697097937391
2.76188190202666 	 0.814705456768663 	 0.814705456768663
2.87426138641459 	 0.867946113285155 	 0.867946113285155
2.98444339561252 	 0.921766755489824 	 0.921766755489824
3.09299817034452 	 0.975722951383964 	 0.975722951383964
3.2005188489138 	 1.02944827430727 	 1.02944827430727
3.30834240659017 	 1.08298220069058 	 1.08298220069058
3.4178864660791 	 1.13637936004725 	 1.13637936004725
3.52998217248797 	 1.18932208729217 	 1.18932208729217
3.64529070054345 	 1.24129540129407 	 1.24129540129407
3.76448253033073 	 1.29164182940739 	 1.29164182940739
3.88834214062817 	 1.33956477843004 	 1.33956477843004
4.01786814554583 	 1.3841024490543 	 1.3841024490543
4.14621781172438 	 1.42188899785464 	 1.42188899785464
4.27058066568563 	 1.45188621203378 	 1.45188621203378
4.39095705236959 	 1.47427767289108 	 1.47427767289108
4.50816128824314 	 1.48948582274733 	 1.48948582274733
4.62310782544841 	 1.49787837075014 	 1.49787837075014
4.73662135467173 	 1.49971775166653 	 1.49971775166653
4.84942082152067 	 1.49517394721555 	 1.49517394721555
4.96215024589648 	 1.48434506556877 	 1.48434506556877
5.07541738889684 	 1.46727235198739 	 1.46727235198739
5.18983187819562 	 1.44394802505071 	 1.44394802505071
5.30604444754367 	 1.4143164430351 	 1.4143164430351
5.42479298447351 	 1.37826842697747 	 1.37826842697747
5.54696496216658 	 1.33562676163857 	 1.33562676163857
5.6736934936712 	 1.28611754084577 	 1.28611754084577
5.80652257197676 	 1.22931468971794 	 1.22931468971794
5.9424300895011 	 1.1670235836251 	 1.1670235836251
6.0755677806669 	 1.10300914495063 	 1.10300914495063
6.20445520936495 	 1.03929140006071 	 1.03929140006071
6.32925300505883 	 0.976964995155239 	 0.976964995155239
6.4513108167219 	 0.916347923536809 	 0.916347923536809
6.5728020747949 	 0.857248012526075 	 0.857248012526075
6.69499643437119 	 0.799931589828787 	 0.799931589828787
6.81886479914261 	 0.744880159962997 	 0.744880159962997
6.94534116176034 	 0.692710462579873 	 0.692710462579873
7.07547326367873 	 0.644165936317293 	 0.644165936317293
7.21056248939877 	 0.60014951877946 	 0.60014951877946
7.35187328952879 	 0.561916529074296 	 0.561916529074296
7.4922881881808 	 0.532576358213128 	 0.532576358213128
7.63009947956621 	 0.51272458588609 	 0.51272458588609
7.76566706059774 	 0.502210283265983 	 0.502210283265983
7.89995436962308 	 0.500800905544353 	 0.500800905544353
8.03403608758406 	 0.508361761146714 	 0.508361761146714
8.16898766536129 	 0.524882569362623 	 0.524882569362623
8.30590858234916 	 0.550472000004796 	 0.550472000004796
8.44599658487791 	 0.585356822643068 	 0.585356822643068
8.59065892266819 	 0.629897316675805 	 0.629897316675805
8.74168244513285 	 0.684628355105378 	 0.684628355105378
8.90152616172498 	 0.750346111008104 	 0.750346111008104
9.06523883996284 	 0.824234455221591 	 0.824234455221591
9.22868132882381 	 0.902686379055474 	 0.902686379055474
9.39215213545715 	 0.983741668608245 	 0.983741668608245
9.55766552290594 	 1.06623732639555 	 1.06623732639555
9.73093022229613 	 1.15061380053661 	 1.15061380053661
9.91825573520466 	 1.23668072190533 	 1.23668072190533
10 	 1.27181227170511 	 1.27181227170511
Solving for ya = 1,-0.5, eps = 0.01
0 	 1 	 1
0.1 	 0.9501316875 	 0.9501316875
0.199927426773449 	 0.900887725167754 	 0.900887725167754
0.300101064603585 	 0.852597072325723 	 0.852597072325723
0.400893633779487 	 0.805574691124452 	 0.805574691124452
0.50271598008876 	 0.760144713514084 	 0.760144713514084
0.606025630487542 	 0.716654384592284 	 0.716654384592284
0.711349171532761 	 0.675486468268283 	 0.675486468268283
0.819318333840509 	 0.637074410742512 	 0.637074410742512
0.930726872294507 	 0.601924282227586 	 0.601924282227586
1.04418530396053 	 0.571249514855904 	 0.571249514855904
1.15600897733881 	 0.546451304357241 	 0.546451304357241
1.26536826249296 	 0.527713681668722 	 0.527713681668722
1.37248054244985 	 0.514862243099357 	 0.514862243099357
1.47786073396381 	 0.507674370206263 	 0.507674370206263
1.58206177475692 	 0.505965848205368 	 0.505965848205368
1.68560455631636 	 0.509604338921147 	 0.509604338921147
1.78897310498441 	 0.518504154988252 	 0.518504154988252
1.89262971522521 	 0.532619205628357 	 0.532619205628357
1.9970355771825 	 0.551938485283674 	 0.551938485283674
2.10267383233877 	 0.576484978550442 	 0.576484978550442
2.21007639989851 	 0.606318333600924 	 0.606318333600924
2.31985844419697 	 0.641542194896175 	 0.641542194896175
2.43276748596285 	 0.682318355428662 	 0.682318355428662
2.54976028812892 	 0.728892441602618 	 0.728892441602618
2.66711425765276 	 0.779405720100635 	 0.779405720100635
2.78229255125364 	 0.83201801873866 	 0.83201801873866
2.89496878234153 	 0.885734431727229 	 0.885734431727229
3.00556048490796 	 0.939966523874373 	 0.939966523874373
3.11466336042861 	 0.994295373130511 	 0.994295373130511
3.22287113959313 	 1.04836279593217 	 1.04836279593217
3.33201837626324 	 1.10245439760676 	 1.10245439760676
3.44322230451442 	 1.15645536699338 	 1.15645536699338
3.557216906346 	 1.20997057190689 	 1.20997057190689
3.67464537919413 	 1.26243881605324 	 1.26243881605324
3.79619634718325 	 1.31316357118669 	 1.31316357118669
3.92269625109943 	 1.36130533684474 	 1.36130533684474
4.05492935211243 	 1.40576030821357 	 1.40576030821357
4.18491985661976 	 1.44289486807999 	 1.44289486807999
4.31069162115564 	 1.47204996780923 	 1.47204996780923
4.4325429904718 	 1.49351372233925 	 1.49351372233925
4.55136644406429 	 1.50771623003535 	 1.50771623003535
4.6680830825156 	 1.51500873859591 	 1.51500873859591
4.78350763978932 	 1.51563559586298 	 1.51563559586298
4.8983500577774 	 1.50975211922646 	 1.50975211922646
5.01325112296614 	 1.49744524802063 	 1.49744524802063
5.12882236181837 	 1.47874752678487 	 1.47874752678487
5.24568501030991 	 1.45364376642198 	 1.45364376642198
5.36451096412711 	 1.42207093449359 	 1.42207093449359
5.48607230425055 	 1.38391082266528 	 1.38391082266528
5.61131041099694 	 1.33897293975626 	 1.33897293975626
5.74144504994879 	 1.28696108658431 	 1.28696108658431
5.8781668132902 	 1.22740798410081 	 1.22740798410081
6.01595140337578 	 1.16338700476985 	 1.16338700476985
6.15023639272634 	 1.09825092429998 	 1.09825092429998
6.28008433676502 	 1.03378077212053 	 1.03378077212053
6.40584770153699 	 0.970958773859371 	 0.970958773859371
6.52913180748482 	 0.909960152675205 	 0.909960152675205
6.6520467554859 	 0.850630318522105 	 0.850630318522105
6.77585016623415 	 0.793263709203347 	 0.793263709203347
6.90153028256988 	 0.738368661078336 	 0.738368661078336
7.03006295195166 	 0.686593175129677 	 0.686593175129677
7.16256736162923 	 0.638722059075435 	 0.638722059075435
7.30046185270041 	 0.595717976460287 	 0.595717976460287
7.44295377229326 	 0.559424621247674 	 0.559424621247674
7.58412580614913 	 0.532336075761224 	 0.532336075761224
7.72277314139648 	 0.514842012808426 	 0.514842012808426
7.85942441246124 	 0.50676027842463 	 0.50676027842463
7.99509781563037 	 0.507881739270282 	 0.507881739270282
8.13090010842848 	 0.518109462513308 	 0.518109462513308
8.26794993708437 	 0.537476572888121 	 0.537476572888121
8.40741615144668 	 0.566142477359015 	 0.566142477359015
8.55060539740635 	 0.604397639676462 	 0.604397639676462
8.6990947911464 	 0.652688195937503 	 0.652688195937503
8.85494384352817 	 0.711673111532428 	 0.711673111532428
9.02087043949776 	 0.782250950877909 	 0.782250950877909
9.18785935436185 	 0.859481158335392 	 0.859481158335392
9.35434395457175 	 0.940572247567563 	 0.940572247567563
9.52179402141141 	 1.02402914267052 	 1.02402914267052
9.69398624814569 	 1.10942677420007 	 1.10942677420007
9.87795500585996 	 1.1974230105823 	 1.1974230105823
10 	 1.25256161281982 	 1.25256161281982
test
